{
  "status": "success",
  "data": {
    "info": {
      "took": 760,
      "timed_out": false,
      "_shards": { "total": 1, "successful": 1, "skipped": 0, "failed": 0 },
      "hits": {
        "total": { "value": 10668, "relation": "eq" },
        "max_score": null,
        "hits": [
          {
            "_index": "cm_es_result_v2",
            "_id": "5060181",
            "_score": null,
            "_ignored": [
              "raw_header.keyword",
              "body.keyword",
              "tcpdata.keyword"
            ],
            "_source": {
              "id": 5060181,
              "host": "43.198.13.235",
              "port": 443,
              "asn": "16509",
              "chinaadmincode": "",
              "continent": "亚洲",
              "country": "日本",
              "province": "日本",
              "city": "",
              "cloudinnovation": "",
              "latitude": "22.257800",
              "longitude": "114.165700",
              "utcoffset": "AsiaHong_Kong",
              "isp": "亚马逊",
              "asn_name": "AMAZON-02",
              "port_insert_date": "2024-01-17",
              "protocol": "http",
              "tcpdata": "HTTP1.1 400 Bad RequestServer: nginxDate: Tue, 16 Jan 2024 09:59:14 GMTContent-Type: texthtmlContent-Length: 150Connection: close<html<head<title400 Bad Request<title<head<body<center<h1400 Bad Request<h1<center<hr<centernginx<center<body<html",
              "asn_as_number": "AS16509",
              "asn_as_name": "amazon-02",
              "asn_as_country": "US",
              "asn_as_range": ["43.198.0.015", "43.200.0.013"],
              "url": "https:hydw-h5.com",
              "input": "hydw-h5.com",
              "title": "HY游戏",
              "method": "GET",
              "raw_header": "",
              "status_code": 200,
              "country_svg_url": "staticcountry_imgUnited States_US.svg",
              "body_exists": true
            },
            "sort": [1705449600000, 6127758]
          }
        ]
      }
    },
    "page_dict": {
      "page_number": 1,
      "per_page": 100,
      "num_pages": 107,
      "count": 10668,
      "has_next": true,
      "has_previous": false,
      "has_other_pages": true,
      "next_page_number": 2,
      "previous_page_number": 1
    },
    "search_expression": "163.com",
    "export_fields": [
      { "value": "host", "label": "主机地址" },
      { "value": "scheme", "label": "协议" },
      { "value": "port", "label": "端口" },
      { "value": "method", "label": "请求方式" },
      { "value": "title", "label": "标题" }
    ]
  }
}
